<svg width="24" height="25" viewBox="0 0 24 25" fill="none" xmlns="http://www.w3.org/2000/svg">
<g id="logo">
<circle id="Ellipse 1" cx="12" cy="12.5" r="12" fill="#425DF8"/>
<path id="Vector 1" d="M4.79999 7.70001H9.29999M18.9 7.70001V14.9M18.9 7.70001L9.29999 18.5V7.70001M18.9 7.70001H9.29999" stroke="white" stroke-width="2.5"/>
</g>
</svg>
